[
  {
    "date":"2014-10-15",
    "badge": true,
    "title":"15/10/2014",
    "body":"<p class=\"lead\">08:00 - Trabalho<\/p><p class=\"margin-events-p\">Entrega de trablhos do professor ao blog.<\/p>",
    "classname":"purple-event"
  },
  {
      "date":"2014-10-02",
      "badge":true,
      "title":"2014-10-02",
      "body":"<p class=\"lead\">19:00 - Provas<\/p><p class=\"margin-events-p\">Prova de banco de dados.<\/p>",
      "classname":"purple-event"
  },
  {
      "date":"2014-10-10",
      "badge":true,
      "title":"2014-10-10",
      "body":"<p class=\"lead\">22:55 - Fechar Exercicio <\/p><p class=\"margin-events-p\">Fechar exercicio de direito do blog.<\/p>",
      "classname":"purple-event"
   },
   {
      "date":"2014-10-05",
      "badge":true,
      "title":"2014-10-05",
      "body":"<p class=\"lead\">22:55 - Fechar Notas<\/p><p class=\"margin-events-p\">Fechar notas de todas as turmas.<\/p>",
      "classname":"purple-event"
      },
      {
      "date":"2014-09-05",
      "badge":true,
      "title":"2014-09-05",
      "body":"<p class=\"lead\">14:00 - Cadastrar Estagios<\/p><p class=\"margin-events-p\">Cadastras estagios das empresas parceiras da faculdade.<\/p>",
      "classname":"purple-event"
      },
      {
      "date":"2014-11-01",
      "badge":true,
      "title":"2014-11-01",
      "body":"<p class=\"lead\">10:00 - Folga<\/p><p class=\"margin-events-p\">Nao ir trabalhar.<\/p>",
      "classname":"purple-event"
      }
]
